<?xml version="1.0" encoding="UTF-8"?>
<svg id="tree-dots" width="18px" height="5px" viewBox="0 0 13 3" version="1.1" xmlns="http://www.w3.org/2000/svg" xmlns:xlink="http://www.w3.org/1999/xlink">
    <style>
        #tree-dots #tree-dots-wrapper-outer #tree-dots-wrapper-inner { fill: #9B9B9B; }
        #tree-dots:hover #tree-dots-wrapper-outer #tree-dots-wrapper-inner { fill: #2A88F8; }
    </style>
    <g id="tree-dots-wrapper-outer" stroke="none" stroke-width="1" fill="none" fill-rule="evenodd">
        <g id="tree-dots-wrapper-inner" fill="#9B9B9B">
            <ellipse id="Oval-2" cx="1.5" cy="1.5" rx="1.5" ry="1.5" />
            <ellipse id="Oval-2" cx="6.5" cy="1.5" rx="1.5" ry="1.5" />
            <ellipse id="Oval-2" cx="11.5" cy="1.5" rx="1.5" ry="1.5" />
        </g>
    </g>
</svg>