<?xml version="1.0" encoding="UTF-8"?>
<svg width="21px" height="21px" viewBox="0 0 21 21" version="1.1" xmlns="http://www.w3.org/2000/svg" xmlns:xlink="http://www.w3.org/1999/xlink">
    <g id="Page-1" stroke="none" stroke-width="1" fill="none" fill-rule="evenodd">
        <g id="Group-44" transform="translate(-4.000000, -4.000000)" fill="#2A88F8">
            <path d="M14.1421356,24.1421356 C19.6649831,24.1421356 24.1421356,19.6649831 24.1421356,14.1421356 C24.1421356,8.61928813 19.6649831,4.14213562 14.1421356,4.14213562 C8.61928813,4.14213562 4.14213562,8.61928813 4.14213562,14.1421356 C4.14213562,19.6649831 8.61928813,24.1421356 14.1421356,24.1421356 L14.1421356,24.1421356 Z M14.1421356,12.820909 L10.5059934,9.1847668 C10.1447117,8.8234851 9.55238241,8.82268909 9.18753575,9.18753575 C8.82014544,9.55492605 8.82144939,10.142676 9.1847668,10.5059934 L12.820909,14.1421356 L9.1847668,17.7782778 C8.8234851,18.1395595 8.82268909,18.7318888 9.18753575,19.0967355 C9.55492605,19.4641258 10.142676,19.4628219 10.5059934,19.0995045 L14.1421356,15.4633623 L17.7782778,19.0995045 C18.1395595,19.4607861 18.7318888,19.4615822 19.0967355,19.0967355 C19.4641258,18.7293452 19.4628219,18.1415952 19.0995045,17.7782778 L15.4633623,14.1421356 L19.0995045,10.5059934 C19.4607861,10.1447117 19.4615822,9.55238241 19.0967355,9.18753575 C18.7293452,8.82014544 18.1415952,8.82144939 17.7782778,9.1847668 L14.1421356,12.820909 L14.1421356,12.820909 Z" id="Multiply-Circle-fill" transform="translate(14.142136, 14.142136) rotate(45.000000) translate(-14.142136, -14.142136) "></path>
        </g>
    </g>
</svg>