<?xml version="1.0" encoding="UTF-8"?>
<svg width="24px" height="24px" viewBox="0 0 24 24" version="1.1" xmlns="http://www.w3.org/2000/svg" xmlns:xlink="http://www.w3.org/1999/xlink">
    <!-- Generator: Sketch 42 (36781) - http://www.bohemiancoding.com/sketch -->
    <title>Group-42</title>
    <desc>Created with Sketch.</desc>
    <defs></defs>
    <g id="Page-1" stroke="none" stroke-width="1" fill="none" fill-rule="evenodd">
        <g id="link-calendars" transform="translate(-133.000000, 0.000000)" fill-rule="nonzero">
            <g id="Group-41">
                <g id="Page-1">
                    <g id="Group-41">
                        <g id="Group-42" transform="translate(133.000000, 0.000000)">
                            <circle id="Oval-11" fill="#2A88F8" opacity="0.5" cx="12" cy="12" r="12"></circle>
                            <path d="M8.52376465,7.26064167 C8.17837105,6.91524808 7.61209063,6.91448708 7.26328886,7.26328886 C6.9120553,7.61452241 6.9133019,8.17642487 7.26064167,8.52376465 L10.736877,12 L7.26064167,15.4762354 C6.91524808,15.8216289 6.91448708,16.3879094 7.26328886,16.7367111 C7.61452241,17.0879447 8.17642487,17.0866981 8.52376465,16.7393583 L12,13.263123 L15.4762354,16.7393583 C15.8216289,17.0847519 16.3879094,17.0855129 16.7367111,16.7367111 C17.0879447,16.3854776 17.0866981,15.8235751 16.7393583,15.4762354 L13.263123,12 L16.7393583,8.52376465 C17.0847519,8.17837105 17.0855129,7.61209063 16.7367111,7.26328886 C16.3854776,6.9120553 15.8235751,6.9133019 15.4762354,7.26064167 L12,10.736877 L8.52376465,7.26064167 Z" id="Times-Circle-Copy" fill="#FFFFFF"></path>
                        </g>
                    </g>
                </g>
            </g>
        </g>
    </g>
</svg>